<svg width="61px" height="61px" viewBox="0 0 61 61" version="1.1" xmlns="http://www.w3.org/2000/svg" xmlns:xlink="http://www.w3.org/1999/xlink">
    <defs></defs>
    <g id="Page-1" stroke="none" stroke-width="1" fill="none" fill-rule="evenodd">
        <g id="Group" style="mix-blend-mode: exclusion;">
            <circle id="Oval" fill="#FF0000" cx="30.5" cy="30.5" r="30.5"></circle>
            <path d="M30.5,31 L19,42 L30.5,31 L42,42 L30.5,31 Z M30.5,31 L42,20 L30.5,31 L19,20 L30.5,31 Z" id="Line" stroke="#2D3333" stroke-width="5" stroke-linecap="square"></path>
        </g>
    </g>
</svg>